%YAML 1.1
%TAG !u! tag:unity3d.com,2011:
--- !u!1 &130400432645527121
GameObject:
  m_ObjectHideFlags: 0
  m_CorrespondingSourceObject: {fileID: 0}
  m_PrefabInstance: {fileID: 0}
  m_PrefabAsset: {fileID: 0}
  serializedVersion: 6
  m_Component:
  - component: {fileID: 5022361770708214495}
  m_Layer: 12
  m_Name: PlayerBulletPatternLvl1
  m_TagString: PlayerBullet
  m_Icon: {fileID: 0}
  m_NavMeshLayer: 0
  m_StaticEditorFlags: 0
  m_IsActive: 1
--- !u!4 &5022361770708214495
Transform:
  m_ObjectHideFlags: 0
  m_CorrespondingSourceObject: {fileID: 0}
  m_PrefabInstance: {fileID: 0}
  m_PrefabAsset: {fileID: 0}
  m_GameObject: {fileID: 130400432645527121}
  m_LocalRotation: {x: 0, y: 0, z: 0, w: 1}
  m_LocalPosition: {x: 0, y: 0, z: 0}
  m_LocalScale: {x: 1, y: 1, z: 1}
  m_Children:
  - {fileID: 823516837776925871}
  m_Father: {fileID: 0}
  m_RootOrder: 0
  m_LocalEulerAnglesHint: {x: 0, y: 0, z: 0}
--- !u!1001 &827686579123387249
PrefabInstance:
  m_ObjectHideFlags: 0
  serializedVersion: 2
  m_Modification:
    m_TransformParent: {fileID: 5022361770708214495}
    m_Modifications:
    - target: {fileID: 1429914351125636, guid: 72ed5545e140f3246b11e0bd2a9cc517, type: 3}
      propertyPath: m_Name
      value: PlayerBullet (1)
      objectReference: {fileID: 0}
    - target: {fileID: 1429914351125636, guid: 72ed5545e140f3246b11e0bd2a9cc517, type: 3}
      propertyPath: m_TagString
      value: PlayerBullet
      objectReference: {fileID: 0}
    - target: {fileID: 4838665331072990, guid: 72ed5545e140f3246b11e0bd2a9cc517, type: 3}
      propertyPath: m_LocalPosition.x
      value: 0
      objectReference: {fileID: 0}
    - target: {fileID: 4838665331072990, guid: 72ed5545e140f3246b11e0bd2a9cc517, type: 3}
      propertyPath: m_LocalPosition.y
      value: 0
      objectReference: {fileID: 0}
    - target: {fileID: 4838665331072990, guid: 72ed5545e140f3246b11e0bd2a9cc517, type: 3}
      propertyPath: m_LocalPosition.z
      value: 0
      objectReference: {fileID: 0}
    - target: {fileID: 4838665331072990, guid: 72ed5545e140f3246b11e0bd2a9cc517, type: 3}
      propertyPath: m_LocalRotation.x
      value: 0.7071068
      objectReference: {fileID: 0}
    - target: {fileID: 4838665331072990, guid: 72ed5545e140f3246b11e0bd2a9cc517, type: 3}
      propertyPath: m_LocalRotation.y
      value: 0
      objectReference: {fileID: 0}
    - target: {fileID: 4838665331072990, guid: 72ed5545e140f3246b11e0bd2a9cc517, type: 3}
      propertyPath: m_LocalRotation.z
      value: 0
      objectReference: {fileID: 0}
    - target: {fileID: 4838665331072990, guid: 72ed5545e140f3246b11e0bd2a9cc517, type: 3}
      propertyPath: m_LocalRotation.w
      value: 0.7071068
      objectReference: {fileID: 0}
    - target: {fileID: 4838665331072990, guid: 72ed5545e140f3246b11e0bd2a9cc517, type: 3}
      propertyPath: m_RootOrder
      value: 0
      objectReference: {fileID: 0}
    - target: {fileID: 4838665331072990, guid: 72ed5545e140f3246b11e0bd2a9cc517, type: 3}
      propertyPath: m_LocalEulerAnglesHint.x
      value: 90
      objectReference: {fileID: 0}
    - target: {fileID: 4838665331072990, guid: 72ed5545e140f3246b11e0bd2a9cc517, type: 3}
      propertyPath: m_LocalEulerAnglesHint.y
      value: 0
      objectReference: {fileID: 0}
    - target: {fileID: 4838665331072990, guid: 72ed5545e140f3246b11e0bd2a9cc517, type: 3}
      propertyPath: m_LocalEulerAnglesHint.z
      value: 0
      objectReference: {fileID: 0}
    m_RemovedComponents: []
  m_SourcePrefab: {fileID: 100100000, guid: 72ed5545e140f3246b11e0bd2a9cc517, type: 3}
--- !u!4 &823516837776925871 stripped
Transform:
  m_CorrespondingSourceObject: {fileID: 4838665331072990, guid: 72ed5545e140f3246b11e0bd2a9cc517,
    type: 3}
  m_PrefabInstance: {fileID: 827686579123387249}
  m_PrefabAsset: {fileID: 0}
